…
table1 <- djia[[2]] %>%
  mutate(date_added = ymd(date_added),
         
         ticker = ifelse(str_detect(symbol, "NYSE*"),
                          str_sub(symbol,7,11),
                          symbol))

tickers <- table1 %>% 
  select(ticker) %>% 
  pull() %>% 
  c("SPY")

print(table1)

## # A tibble: 30 x 8
##    company   exchange symbol industry  date_added notes   index_weighting ticker
##    <chr>     <chr>    <chr>  <chr>     <date>     <chr>   <chr>           <chr> 
##  1 3M        NYSE     MMM    Conglome~ 1976-08-09 "As Mi~ 3.62%           MMM   
##  2 American~ NYSE     AXP    Financia~ 1982-08-30 ""      3.00%           AXP   
##  3 Amgen     NASDAQ   AMGN   Biopharm~ 2020-08-31 ""      4.18%           AMGN  
##  4 Apple In~ NASDAQ   AAPL   Informat~ 2015-03-19 ""      2.78%           AAPL  
##  5 Boeing    NYSE     BA     Aerospac~ 1987-03-12 ""      4.12%           BA    
##  6 Caterpil~ NYSE     CAT    Construc~ 1991-05-06 ""      3.96%           CAT   
##  7 Chevron ~ NYSE     CVX    Petroleu~ 2008-02-19 "Also ~ 1.82%           CVX   
##  8 Cisco Sy~ NASDAQ   CSCO   Informat~ 2009-06-08 ""      1.10%           CSCO  
##  9 The Coca~ NYSE     KO     Soft Dri~ 1987-03-12 "Also ~ 1.04%           KO    
## 10 Dow Inc.  NYSE     DOW    Chemical~ 2019-04-02 ""      1.18%           DOW   
## # ... with 20 more rows
…
#calculate yearly returns
myStocks_returns_annual <- myStocks %>%
  group_by(symbol) %>%
  tq_transmute(select     = adjusted, 
               mutate_fun = periodReturn, 
               period     = "yearly", 
               type       = "arithmetic",
               col_rename = "yearly_returns",
               cols = c(nested.col)) 

print(myStocks_returns_monthly)

## # A tibble: 7,741 x 3
## # Groups:   symbol [31]
##    symbol date       monthly_returns
##    <chr>  <date>               <dbl>
##  1 MMM    2000-01-31        -0.00795
##  2 MMM    2000-02-29        -0.0520 
##  3 MMM    2000-03-31         0.00425
##  4 MMM    2000-04-28        -0.0219 
##  5 MMM    2000-05-31        -0.00368
##  6 MMM    2000-06-30        -0.0321 
##  7 MMM    2000-07-31         0.0851 
##  8 MMM    2000-08-31         0.0390 
##  9 MMM    2000-09-29        -0.0203 
## 10 MMM    2000-10-31         0.0604 
## # ... with 7,731 more rows

Create a table where you summarise monthly returns for each of the stocks and SPY; min, max, median, mean, SD.

ourtable1 <- myStocks_returns_monthly %>%
  group_by(symbol) %>%
  summarise(Minimum = min(monthly_returns), Maximum = max(monthly_returns), Median = median(monthly_returns), Mean = mean(monthly_returns), SD = sd(monthly_returns))

print(ourtable1)

## # A tibble: 31 x 6
##    symbol Minimum Maximum  Median    Mean     SD
##    <chr>    <dbl>   <dbl>   <dbl>   <dbl>  <dbl>
##  1 AAPL    -0.577   0.454 0.0352  0.0269  0.115 
##  2 AMGN    -0.170   0.328 0.00856 0.00811 0.0732
##  3 AXP     -0.279   0.875 0.0109  0.0101  0.0921
##  4 BA      -0.458   0.459 0.0165  0.0126  0.0925
##  5 CAT     -0.353   0.350 0.0141  0.0144  0.0898
##  6 CRM     -0.360   0.403 0.0205  0.0262  0.110 
##  7 CSCO    -0.367   0.389 0.0125  0.00606 0.0962
##  8 CVX     -0.224   0.273 0.0108  0.00891 0.0654
##  9 DIS     -0.268   0.234 0.0100  0.0104  0.0737
## 10 DOW     -0.276   0.255 0.0325  0.0156  0.109 
## # ... with 21 more rows
…
